…
# Analysis

## 0\. Read data

countries included in this analysis:

  - 10 biggest economies per continent by gdp
  - 50 biggest economies globally by gdp
  - excluding Cuba, which didn’t import anything to the US in 2017

<!-- end list -->

    ## # A tibble: 67 x 4
    ## # Groups:   continent [5]
    ##    iso.code country      continent gdp18
    ##    <chr>    <chr>        <chr>     <dbl>
    ##  1 DZA      Algeria      Africa    174. 
    ##  2 AGO      Angola       Africa    101. 
    ##  3 EGY      Egypt        Africa    251. 
    ##  4 ETH      Ethiopia     Africa     84.3
    ##  5 GHA      Ghana        Africa     65.6
    ##  6 KEN      Kenya        Africa     87.8
    ##  7 MAR      Morocco      Africa    118. 
    ##  8 NGA      Nigeria      Africa    398. 
    ##  9 ZAF      South Africa Africa    368. 
    ## 10 TZA      Tanzania     Africa     58.0
    ## # ... with 57 more rows
…
